v 20130925 2
C 40000 40000 0 0 0 title-B.sym
T 50100 40800 9 10 1 0 0 0 1
Power Board - MBuoy Project - Type 1
T 53900 40100 9 10 1 0 0 0 2
1   -    16 August 2017
W. D. Scott
T 50000 40100 9 10 1 0 0 0 2
PowerBoardType1.sch
1                               1
T 41900 49100 9 10 1 0 0 0 2
Power Supply Input
Bench or Battery
C 42100 48300 1 0 0 in-1.sym
{
T 42100 48600 5 10 0 0 0 0 1
device=INPUT
T 42100 48600 5 10 1 1 0 0 1
refdes=J1
}
C 42100 47800 1 0 0 in-1.sym
{
T 42100 48100 5 10 0 0 0 0 1
device=INPUT
T 42100 48100 5 10 1 1 0 0 1
refdes=J2
}
T 55500 47200 9 10 1 0 0 0 1
SVS-603
C 53100 45700 1 0 0 gnd-1.sym
C 49600 44500 1 0 0 gnd-1.sym
C 44500 44600 1 0 0 gnd-1.sym
N 53200 46000 53200 47400 4
C 43900 46600 1 270 0 battery-2.sym
{
T 44600 46300 5 10 0 0 270 0 1
device=BATTERY
T 44400 46300 5 10 1 2 270 0 1
B1=9V
T 45200 46300 5 10 0 0 270 0 1
symversion=0.1
}
C 44900 46600 1 270 0 battery-2.sym
{
T 45600 46300 5 10 0 0 270 0 1
device=BATTERY
T 45400 46300 5 10 1 1 270 0 1
refdes=B2
T 46200 46300 5 10 0 0 270 0 1
symversion=0.1
}
N 44100 45700 44100 44900 4
N 43100 44900 45100 44900 4
N 45100 45700 45100 44900 4
T 40800 48100 9 10 1 0 0 0 1
6 to 15 vdc
N 42700 47900 43100 47900 4
N 43100 47900 43100 44900 4
N 45100 46600 45100 47400 4
N 45100 47400 45800 47400 4
N 44100 46600 44100 47900 4
N 44100 47900 45200 47900 4
C 45200 47700 1 0 0 diode-1.sym
{
T 45600 48300 5 10 0 0 0 0 1
device=DIODE
T 45500 48200 5 10 1 1 0 0 1
refdes=D2
}
C 45800 47200 1 0 0 diode-1.sym
{
T 46200 47800 5 10 0 0 0 0 1
device=DIODE
T 46100 47700 5 10 1 1 0 0 1
refdes=D3
}
N 42700 48400 44600 48400 4
N 46700 47400 48100 47400 4
N 46100 47900 48100 47900 4
C 49600 47400 1 0 0 gnd-1.sym
N 48100 45900 48100 48900 4
N 50200 48900 52900 48900 4
N 50200 45900 51700 45900 4
N 51700 45900 51700 46500 4
T 51500 49200 9 10 1 0 0 0 1
+5 vdc
N 49200 48900 48100 48900 4
N 49200 45900 48100 45900 4
N 49700 47700 49700 48600 4
N 49700 44800 49700 45600 4
C 48500 47800 1 0 0 capacitor-1.sym
{
T 48700 48500 5 10 0 0 0 0 1
device=CAPACITOR
T 48700 48300 5 10 1 1 0 0 1
refdes=C1
T 48700 48700 5 10 0 0 0 0 1
symversion=0.1
}
C 50100 47800 1 0 0 capacitor-1.sym
{
T 50300 48500 5 10 0 0 0 0 1
device=CAPACITOR
T 50300 48300 5 10 1 1 0 0 1
refdes=C2
T 50300 48700 5 10 0 0 0 0 1
symversion=0.1
}
C 50100 44800 1 0 0 capacitor-1.sym
{
T 50300 45500 5 10 0 0 0 0 1
device=CAPACITOR
T 50300 45300 5 10 1 1 0 0 1
refdes=C3
T 50300 45700 5 10 0 0 0 0 1
symversion=0.1
}
N 49400 48000 49700 48000 4
N 50100 48000 49700 48000 4
N 51000 48000 51000 48900 4
N 50100 45000 49700 45000 4
N 49700 45000 51200 45000 4
N 51200 45000 51200 45900 4
T 41300 43000 9 10 1 0 0 0 3
Bill of Material (BoM) available at:

  https://drive.google.com/open?id=17jgAHYhsakUB_cJU_LZEc7M_ubbJZEw1_9UmccByuX0
T 41300 41600 9 10 1 0 0 0 4
Type 1 Power Board

  1. No solar charging interface
  2. Dual 9V batteries resident on board
C 44600 48200 1 0 0 diode-1.sym
{
T 45000 48800 5 10 0 0 0 0 1
device=DIODE
T 44900 48700 5 10 1 1 0 0 1
refdes=D1
}
N 48500 48000 48100 48000 4
N 45500 48400 48100 48400 4
N 52900 48900 52900 47100 4
N 52900 47100 53500 47100 4
T 55500 46600 9 10 1 0 0 0 1
Omega2+
C 55200 47600 1 180 0 connector4-1.sym
{
T 53400 46700 5 10 0 0 180 0 1
device=CONNECTOR_4
T 55200 46200 5 10 1 1 180 0 1
refdes=CONN1
}
N 53200 47400 53500 47400 4
N 53500 46800 53200 46800 4
B 49200 48600 1000 600 15 0 0 0 -1 -1 0 -1 -1 -1 -1 -1
T 49700 48800 15 8 1 0 0 4 2
IN           OUT
      GND
T 49700 49000 15 8 1 0 0 4 1
3                           1
T 49800 48500 15 8 1 0 0 4 1
2
T 49600 49300 15 10 1 0 0 0 1
U1
B 49200 45600 1000 600 15 0 0 0 -1 -1 0 -1 -1 -1 -1 -1
T 49700 45800 15 8 1 0 0 4 2
IN           OUT
      GND
T 49700 46000 15 8 1 0 0 4 1
3                           1
T 49800 45500 15 8 1 0 0 4 1
2
T 49600 46300 15 10 1 0 0 0 1
U2
T 47800 50000 9 14 1 0 0 4 1
MBuoy Project - Power Board - Type 1
T 51400 45400 9 10 1 0 0 0 1
+5 vdc
N 51700 46500 53500 46500 4
T 51100 44000 9 10 1 0 0 0 3
Revision 1
  Removed regulator selector jumper.
  U2 is now a 5vdc regulator to power the Omega2+.
